<?xml version="1.0" encoding="utf-8"?>
<!-- Generator: Adobe Illustrator 16.0.4, SVG Export Plug-In . SVG Version: 6.00 Build 0)  -->
<!DOCTYPE svg PUBLIC "-//W3C//DTD SVG 1.1//EN" "http://www.w3.org/Graphics/SVG/1.1/DTD/svg11.dtd">
<svg version="1.1" id="Layer_1" xmlns="http://www.w3.org/2000/svg" xmlns:xlink="http://www.w3.org/1999/xlink" x="0px" y="0px"
	 width="248px" height="248px" viewBox="0 0 248 248" enable-background="new 0 0 248 248" xml:space="preserve">
<g>
	<g transform="translate(4.000000, 2.000000)">
		<g>
			
				<linearGradient id="SVGID_1_" gradientUnits="userSpaceOnUse" x1="-390.4194" y1="504.2744" x2="-390.4194" y2="505.2744" gradientTransform="matrix(248 0 0 -248 96944 125306)">
				<stop  offset="0.25" style="stop-color:#DBDBDA"/>
				<stop  offset="1" style="stop-color:#FFFFFF"/>
			</linearGradient>
			<circle fill="url(#SVGID_1_)" cx="120" cy="122" r="124"/>
		</g>
		
			<radialGradient id="SVGID_2_" cx="-390.2617" cy="504.8242" r="0.6103" gradientTransform="matrix(229.4 0 0 -229.4 89661.9453 115903.6719)" gradientUnits="userSpaceOnUse">
			<stop  offset="0" style="stop-color:#2ABCE1"/>
			<stop  offset="0.1136" style="stop-color:#2ABBE1"/>
			<stop  offset="1" style="stop-color:#3375F8"/>
		</radialGradient>
		<circle fill="url(#SVGID_2_)" cx="120" cy="122" r="114.7"/>
		<g transform="translate(9.687500, 8.718750)">
			<path fill="#F3F3F3" d="M110.506,26.481c-0.774,0-1.453-0.582-1.453-1.356V4.878c0-0.775,0.678-1.356,1.453-1.356
				c0.775,0,1.453,0.581,1.453,1.356v20.247C111.862,25.9,111.281,26.481,110.506,26.481L110.506,26.481z"/>
			<path fill="#FFFFFF" d="M110.506,26.578c-0.872,0-1.55-0.678-1.55-1.453V4.878c0-0.775,0.678-1.453,1.55-1.453
				c0.872,0,1.551,0.678,1.551,1.453v20.247C112.057,25.9,111.281,26.578,110.506,26.578L110.506,26.578z M110.506,3.619
				c-0.678,0-1.356,0.582-1.356,1.259v20.247c0,0.678,0.582,1.259,1.356,1.259c0.679,0,1.356-0.581,1.356-1.259V4.878
				C111.766,4.2,111.185,3.619,110.506,3.619L110.506,3.619z"/>
			<path fill="#F3F3F3" d="M120.193,15.631c-0.774-0.097-1.355-0.678-1.355-1.453l0.678-9.009c0.097-0.775,0.775-1.356,1.55-1.26
				c0.775,0.097,1.356,0.678,1.356,1.453l-0.678,9.01C121.646,15.147,120.969,15.728,120.193,15.631L120.193,15.631z"/>
			<path fill="#FFFFFF" d="M120.193,15.728c-0.871-0.097-1.453-0.775-1.453-1.55l0.679-9.009c0.097-0.775,0.774-1.453,1.646-1.356
				s1.453,0.775,1.453,1.55l-0.678,9.01C121.744,15.244,121.065,15.825,120.193,15.728L120.193,15.728z M121.065,4.006
				c-0.678,0-1.356,0.484-1.356,1.163l-0.678,9.009c0,0.678,0.484,1.259,1.26,1.356c0.678,0,1.355-0.484,1.355-1.162l0.679-9.01
				C122.325,4.685,121.744,4.103,121.065,4.006L121.065,4.006z"/>
			<path fill="#F3F3F3" d="M127.459,28.225c-0.774-0.194-1.259-0.872-1.162-1.647l3.972-19.859c0.194-0.775,0.872-1.259,1.647-1.065
				c0.774,0.193,1.259,0.872,1.162,1.646l-3.972,19.859C129.01,27.837,128.234,28.322,127.459,28.225L127.459,28.225z"/>
			<path fill="#FFFFFF" d="M127.459,28.322c-0.871-0.194-1.355-0.969-1.259-1.744l3.972-19.859c0.193-0.775,0.969-1.356,1.841-1.163
				s1.356,0.969,1.259,1.744L129.3,27.159C129.106,27.935,128.331,28.419,127.459,28.322L127.459,28.322z M132.013,5.75
				c-0.679-0.097-1.356,0.291-1.55,0.969l-3.973,19.859c-0.097,0.678,0.291,1.356,1.066,1.55c0.678,0.097,1.355-0.291,1.55-0.969
				L133.078,7.3C133.175,6.525,132.69,5.944,132.013,5.75L132.013,5.75z"/>
			<path fill="#F3F3F3" d="M139.084,19.506c-0.774-0.194-1.259-0.969-1.065-1.744l2.422-8.719c0.194-0.775,0.969-1.163,1.744-0.969
				c0.774,0.193,1.259,0.969,1.065,1.744l-2.422,8.719C140.635,19.312,139.859,19.7,139.084,19.506L139.084,19.506z"/>
			<path fill="#FFFFFF" d="M139.084,19.603c-0.774-0.194-1.355-1.065-1.065-1.84l2.422-8.719c0.194-0.775,1.065-1.26,1.841-1.066
				s1.356,1.066,1.065,1.841l-2.422,8.719C140.731,19.312,139.956,19.797,139.084,19.603L139.084,19.603z M142.281,8.269
				c-0.678-0.193-1.453,0.194-1.646,0.872l-2.422,8.719c-0.194,0.678,0.193,1.356,0.969,1.55c0.678,0.194,1.453-0.193,1.646-0.872
				l2.422-8.719C143.347,9.141,142.959,8.462,142.281,8.269L142.281,8.269z"/>
			<path fill="#F3F3F3" d="M143.831,33.166c-0.774-0.291-1.065-1.163-0.774-1.84l7.75-18.697c0.29-0.678,1.162-1.065,1.84-0.678
				c0.775,0.291,1.066,1.162,0.775,1.84l-7.75,18.697C145.381,33.166,144.51,33.553,143.831,33.166L143.831,33.166z"/>
			<path fill="#FFFFFF" d="M143.831,33.263c-0.774-0.291-1.162-1.163-0.872-1.938l7.75-18.697c0.291-0.775,1.163-1.065,2.035-0.775
				c0.774,0.291,1.162,1.163,0.871,1.938l-7.75,18.697C145.479,33.263,144.606,33.65,143.831,33.263L143.831,33.263z
				 M152.646,12.047c-0.678-0.291-1.453,0-1.743,0.678l-7.75,18.697c-0.291,0.678,0.097,1.356,0.774,1.647
				c0.679,0.291,1.453,0,1.744-0.678l7.75-18.697C153.615,13.112,153.325,12.337,152.646,12.047L152.646,12.047z"/>
			<path fill="#F3F3F3" d="M156.909,26.966c-0.678-0.388-0.969-1.163-0.678-1.841l4.068-8.041c0.388-0.678,1.163-0.969,1.938-0.582
				c0.679,0.388,0.969,1.163,0.679,1.841l-4.069,8.041C158.459,27.062,157.685,27.353,156.909,26.966L156.909,26.966z"/>
			<path fill="#FFFFFF" d="M156.909,27.062c-0.774-0.388-1.065-1.259-0.678-2.034l4.068-8.041c0.388-0.775,1.26-1.065,2.034-0.678
				c0.775,0.387,1.066,1.259,0.679,2.034l-4.069,8.041C158.557,27.159,157.685,27.45,156.909,27.062L156.909,27.062z
				 M162.237,16.503c-0.678-0.291-1.453-0.097-1.743,0.582l-4.069,8.041c-0.29,0.581,0,1.356,0.581,1.744
				c0.679,0.291,1.453,0.097,1.744-0.581l4.068-8.041C163.109,17.666,162.818,16.891,162.237,16.503L162.237,16.503z"/>
			<path fill="#F3F3F3" d="M158.847,41.303c-0.678-0.484-0.872-1.356-0.388-1.938l11.238-16.759
				c0.387-0.678,1.259-0.775,1.938-0.388c0.678,0.484,0.871,1.356,0.387,1.938l-11.237,16.759
				C160.396,41.594,159.525,41.788,158.847,41.303L158.847,41.303z"/>
			<path fill="#FFFFFF" d="M158.847,41.4c-0.678-0.484-0.872-1.453-0.484-2.131L169.6,22.509c0.484-0.678,1.356-0.872,2.132-0.387
				c0.678,0.484,0.872,1.453,0.484,2.131l-11.237,16.76C160.494,41.69,159.525,41.884,158.847,41.4L158.847,41.4z M171.635,22.315
				c-0.582-0.387-1.453-0.291-1.841,0.291l-11.237,16.759c-0.388,0.581-0.194,1.356,0.387,1.744
				c0.582,0.388,1.453,0.291,1.841-0.291l11.237-16.663C172.409,23.575,172.216,22.703,171.635,22.315L171.635,22.315z"/>
			<path fill="#F3F3F3" d="M172.99,37.719c-0.581-0.484-0.774-1.356-0.29-1.938l5.618-7.072c0.484-0.582,1.356-0.678,1.938-0.194
				c0.582,0.484,0.775,1.356,0.291,1.938l-5.619,7.072C174.443,38.106,173.572,38.203,172.99,37.719L172.99,37.719z"/>
			<path fill="#FFFFFF" d="M172.894,37.815c-0.678-0.484-0.774-1.453-0.29-2.131l5.618-7.072c0.484-0.678,1.453-0.775,2.132-0.193
				c0.678,0.484,0.774,1.453,0.29,2.131l-5.618,7.072C174.541,38.3,173.572,38.397,172.894,37.815L172.894,37.815z M180.159,28.612
				c-0.581-0.484-1.356-0.387-1.841,0.194l-5.618,7.072c-0.388,0.582-0.291,1.356,0.29,1.841c0.582,0.484,1.356,0.388,1.841-0.194
				l5.619-7.072C180.838,29.872,180.74,29,180.159,28.612L180.159,28.612z"/>
			<path fill="#F3F3F3" d="M172.021,52.25c-0.581-0.581-0.581-1.453,0-1.938l14.338-14.241c0.581-0.581,1.453-0.484,1.938,0
				s0.581,1.453,0,1.938l-14.24,14.241C173.475,52.831,172.604,52.831,172.021,52.25L172.021,52.25z"/>
			<path fill="#FFFFFF" d="M171.925,52.347c-0.581-0.581-0.581-1.55,0-2.131l14.338-14.241c0.581-0.582,1.55-0.582,2.131,0
				c0.581,0.581,0.581,1.55,0,2.131l-14.337,14.24C173.475,52.928,172.506,52.928,171.925,52.347L171.925,52.347z M188.297,36.072
				c-0.484-0.484-1.356-0.484-1.841,0l-14.337,14.241c-0.484,0.484-0.484,1.356,0,1.841s1.355,0.484,1.84,0l14.338-14.241
				C188.781,37.428,188.781,36.653,188.297,36.072L188.297,36.072z"/>
			<path fill="#F3F3F3" d="M186.553,51.475c-0.484-0.582-0.484-1.453,0.098-1.938l6.878-5.812c0.581-0.484,1.453-0.388,1.938,0.194
				c0.484,0.581,0.484,1.453-0.097,1.938l-6.879,5.812C187.909,52.153,187.037,52.056,186.553,51.475L186.553,51.475z"/>
			<path fill="#FFFFFF" d="M186.456,51.572c-0.581-0.678-0.484-1.647,0.097-2.131l6.879-5.812c0.581-0.581,1.55-0.484,2.131,0.194
				s0.484,1.647-0.097,2.131l-6.878,5.812C188.006,52.347,187.037,52.25,186.456,51.572L186.456,51.572z M195.369,43.919
				c-0.484-0.582-1.26-0.582-1.841-0.194l-6.878,5.812c-0.484,0.484-0.582,1.259-0.098,1.84c0.484,0.582,1.26,0.582,1.841,0.194
				l6.878-5.812C195.854,45.275,195.854,44.5,195.369,43.919L195.369,43.919z"/>
			<path fill="#F3F3F3" d="M182.678,65.425c-0.484-0.678-0.29-1.55,0.388-1.938l16.856-11.237c0.678-0.388,1.55-0.194,1.938,0.388
				c0.484,0.678,0.291,1.55-0.388,1.938l-16.856,11.237C184.034,66.2,183.162,66.006,182.678,65.425L182.678,65.425z"/>
			<path fill="#FFFFFF" d="M182.581,65.425c-0.484-0.678-0.29-1.646,0.388-2.131l16.856-11.238c0.678-0.484,1.646-0.291,2.131,0.484
				c0.484,0.678,0.291,1.647-0.388,2.131l-16.855,11.237C184.034,66.394,183.065,66.2,182.581,65.425L182.581,65.425z
				 M201.763,52.734c-0.388-0.581-1.163-0.775-1.744-0.388l-16.856,11.238c-0.581,0.387-0.774,1.163-0.29,1.84
				c0.388,0.582,1.162,0.775,1.743,0.388l16.856-11.237C202.053,54.091,202.15,53.315,201.763,52.734L201.763,52.734z"/>
			<path fill="#F3F3F3" d="M197.112,67.459c-0.388-0.678-0.193-1.55,0.484-1.938l7.847-4.457c0.679-0.387,1.551-0.097,1.938,0.582
				c0.388,0.678,0.194,1.55-0.484,1.938l-7.847,4.456C198.372,68.428,197.5,68.138,197.112,67.459L197.112,67.459z"/>
			<path fill="#FFFFFF" d="M197.016,67.556c-0.388-0.775-0.193-1.647,0.484-2.034l7.847-4.457c0.679-0.387,1.647-0.097,2.034,0.582
				c0.388,0.775,0.194,1.647-0.484,2.034l-7.847,4.457C198.372,68.525,197.403,68.234,197.016,67.556L197.016,67.556z
				 M207.284,61.744c-0.388-0.678-1.162-0.872-1.743-0.484l-7.848,4.457c-0.581,0.387-0.774,1.162-0.484,1.744
				c0.388,0.678,1.163,0.872,1.744,0.484l7.847-4.457C207.381,63.197,207.575,62.422,207.284,61.744L207.284,61.744z"/>
			<path fill="#F3F3F3" d="M190.622,80.344c-0.291-0.775,0-1.55,0.774-1.841l18.697-7.75c0.678-0.291,1.55,0.097,1.841,0.775
				c0.29,0.775,0,1.55-0.775,1.84l-18.696,7.75C191.784,81.409,190.912,81.119,190.622,80.344L190.622,80.344z"/>
			<path fill="#FFFFFF" d="M190.525,80.44c-0.291-0.775,0-1.646,0.774-2.034l18.697-7.75c0.774-0.291,1.646,0.097,1.938,0.872
				c0.29,0.775,0,1.646-0.775,2.034l-18.696,7.75C191.688,81.603,190.815,81.216,190.525,80.44L190.525,80.44z M211.74,71.625
				c-0.29-0.678-1.065-0.969-1.646-0.775l-18.697,7.75c-0.678,0.291-0.969,1.065-0.678,1.744s1.065,0.969,1.646,0.775l18.697-7.75
				C211.74,73.078,212.031,72.303,211.74,71.625L211.74,71.625z"/>
			<path fill="#F3F3F3" d="M204.281,85.188c-0.291-0.775,0.097-1.55,0.872-1.841l8.524-2.809c0.679-0.291,1.551,0.194,1.744,0.872
				c0.291,0.775-0.097,1.55-0.872,1.841l-8.524,2.81C205.347,86.35,204.572,85.962,204.281,85.188L204.281,85.188z"/>
			<path fill="#FFFFFF" d="M204.185,85.284c-0.291-0.775,0.097-1.646,0.969-1.938l8.524-2.809c0.775-0.291,1.647,0.194,1.938,0.969
				c0.291,0.775-0.097,1.647-0.969,1.938l-8.524,2.809C205.347,86.447,204.475,86.06,204.185,85.284L204.185,85.284z
				 M215.422,81.603c-0.193-0.678-0.969-1.065-1.646-0.872l-8.525,2.809c-0.678,0.194-0.969,0.969-0.775,1.647
				c0.194,0.678,0.969,1.065,1.647,0.872l8.524-2.81C215.325,82.959,215.615,82.281,215.422,81.603L215.422,81.603z"/>
			<path fill="#F3F3F3" d="M195.562,96.716c-0.193-0.775,0.291-1.55,1.065-1.647l19.859-3.875c0.775-0.194,1.453,0.387,1.647,1.163
				c0.193,0.775-0.291,1.55-1.066,1.646l-19.859,3.875C196.435,97.975,195.659,97.491,195.562,96.716L195.562,96.716z"/>
			<path fill="#FFFFFF" d="M195.369,96.716c-0.194-0.872,0.387-1.647,1.162-1.841L216.391,91c0.775-0.194,1.55,0.388,1.744,1.259
				c0.193,0.872-0.388,1.647-1.163,1.841l-19.859,3.875C196.338,98.169,195.562,97.587,195.369,96.716L195.369,96.716z
				 M217.94,92.356c-0.097-0.678-0.774-1.163-1.453-1.066l-19.859,3.875c-0.678,0.097-1.162,0.872-0.969,1.55
				c0.097,0.678,0.775,1.162,1.453,1.065l19.859-3.875C217.65,93.712,218.135,93.034,217.94,92.356L217.94,92.356z"/>
			<path fill="#F3F3F3" d="M207.963,104.175c-0.098-0.775,0.387-1.453,1.162-1.55l8.912-1.065c0.775-0.097,1.453,0.484,1.551,1.259
				c0.097,0.775-0.388,1.453-1.163,1.55l-8.912,1.066C208.834,105.531,208.06,104.95,207.963,104.175L207.963,104.175z"/>
			<path fill="#FFFFFF" d="M207.865,104.175c-0.097-0.872,0.484-1.646,1.26-1.744l8.912-1.065c0.775-0.097,1.551,0.484,1.647,1.356
				c0.097,0.872-0.484,1.647-1.26,1.744l-8.912,1.065C208.737,105.628,207.963,105.047,207.865,104.175L207.865,104.175z
				 M219.588,102.819c-0.098-0.678-0.775-1.259-1.453-1.163l-8.913,1.065c-0.678,0.097-1.162,0.775-1.065,1.453
				c0.097,0.678,0.775,1.26,1.453,1.163l8.912-1.065C219.2,104.175,219.685,103.497,219.588,102.819L219.588,102.819z"/>
			<path fill="#F3F3F3" d="M197.112,113.572c0-0.775,0.581-1.454,1.356-1.454h20.247c0.774,0,1.356,0.678,1.356,1.454
				c0,0.774-0.582,1.453-1.356,1.453h-20.247C197.693,115.025,197.112,114.347,197.112,113.572L197.112,113.572z"/>
			<path fill="#FFFFFF" d="M197.016,113.572c0-0.872,0.678-1.55,1.453-1.55h20.247c0.774,0,1.453,0.678,1.453,1.55
				c0,0.871-0.679,1.55-1.453,1.55h-20.247C197.693,115.122,197.016,114.443,197.016,113.572L197.016,113.572z M219.975,113.669
				c0-0.678-0.581-1.356-1.259-1.356h-20.247c-0.678,0-1.26,0.581-1.26,1.356c0,0.678,0.582,1.356,1.26,1.356h20.247
				C219.394,114.928,219.975,114.347,219.975,113.669L219.975,113.669z"/>
			<path fill="#F3F3F3" d="M207.865,123.356c0.098-0.775,0.679-1.356,1.453-1.356l9.01,0.678c0.775,0.098,1.356,0.775,1.26,1.551
				c-0.098,0.774-0.679,1.355-1.453,1.355l-9.01-0.678C208.447,124.81,207.865,124.131,207.865,123.356L207.865,123.356z"/>
			<path fill="#FFFFFF" d="M207.769,123.356c0.097-0.872,0.775-1.453,1.55-1.453l9.01,0.678c0.775,0.097,1.453,0.775,1.356,1.647
				c-0.097,0.871-0.775,1.453-1.55,1.453l-9.01-0.679C208.35,124.906,207.769,124.131,207.769,123.356L207.769,123.356z
				 M219.588,124.229c0.097-0.679-0.484-1.356-1.163-1.356l-9.009-0.679c-0.679,0-1.26,0.484-1.356,1.26
				c-0.097,0.678,0.484,1.356,1.162,1.356l9.01,0.678C218.909,125.487,219.49,124.906,219.588,124.229L219.588,124.229z"/>
			<path fill="#F3F3F3" d="M195.369,130.428c0.193-0.774,0.871-1.259,1.646-1.162l19.859,3.972c0.775,0.194,1.26,0.872,1.065,1.647
				c-0.193,0.774-0.872,1.259-1.646,1.162l-19.859-3.972C195.756,131.979,195.271,131.203,195.369,130.428L195.369,130.428z"/>
			<path fill="#FFFFFF" d="M195.271,130.428c0.194-0.871,0.969-1.355,1.744-1.259l19.859,3.972c0.775,0.193,1.356,0.969,1.162,1.841
				c-0.193,0.872-0.969,1.356-1.743,1.259l-19.859-3.972C195.659,132.075,195.175,131.3,195.271,130.428L195.271,130.428z
				 M217.844,134.981c0.097-0.679-0.291-1.356-0.969-1.55l-19.859-3.973c-0.678-0.097-1.356,0.291-1.55,1.066
				c-0.097,0.678,0.29,1.355,0.969,1.55l19.859,3.972C217.068,136.144,217.65,135.659,217.844,134.981L217.844,134.981z"/>
			<path fill="#F3F3F3" d="M204.088,142.053c0.193-0.774,0.969-1.259,1.743-1.065l8.719,2.422c0.775,0.194,1.163,0.969,0.969,1.744
				c-0.193,0.774-0.969,1.259-1.743,1.065l-8.719-2.422C204.281,143.604,203.894,142.828,204.088,142.053L204.088,142.053z"/>
			<path fill="#FFFFFF" d="M203.99,142.053c0.194-0.774,1.066-1.355,1.841-1.065l8.719,2.422c0.775,0.194,1.26,1.065,1.065,1.841
				c-0.193,0.775-1.065,1.356-1.84,1.065l-8.719-2.422C204.281,143.7,203.797,142.925,203.99,142.053L203.99,142.053z
				 M215.325,145.25c0.193-0.678-0.194-1.453-0.872-1.646l-8.719-2.422c-0.678-0.194-1.356,0.193-1.55,0.969
				c-0.194,0.678,0.193,1.453,0.872,1.646l8.719,2.422C214.453,146.315,215.131,145.928,215.325,145.25L215.325,145.25z"/>
			<path fill="#F3F3F3" d="M190.428,146.703c0.291-0.775,1.163-1.065,1.841-0.775l18.697,7.75c0.678,0.291,1.065,1.163,0.774,1.841
				c-0.29,0.775-1.162,1.065-1.84,0.775l-18.697-7.75C190.428,148.253,190.138,147.381,190.428,146.703L190.428,146.703z"/>
			<path fill="#FFFFFF" d="M190.331,146.606c0.291-0.775,1.163-1.163,1.938-0.872l18.697,7.75c0.774,0.291,1.065,1.162,0.774,2.034
				c-0.29,0.775-1.162,1.163-1.938,0.872l-18.696-7.75C190.331,148.253,190.041,147.381,190.331,146.606L190.331,146.606z
				 M211.547,155.422c0.291-0.678,0-1.453-0.678-1.744l-18.697-7.75c-0.678-0.29-1.356,0.098-1.646,0.775
				c-0.291,0.678,0,1.453,0.678,1.744l18.697,7.75C210.578,156.391,211.354,156.1,211.547,155.422L211.547,155.422z"/>
			<path fill="#F3F3F3" d="M196.725,159.781c0.388-0.678,1.163-0.969,1.841-0.678l8.041,4.068c0.678,0.291,0.969,1.162,0.581,1.938
				c-0.388,0.678-1.162,0.969-1.841,0.678l-8.04-4.068C196.628,161.331,196.338,160.459,196.725,159.781L196.725,159.781z"/>
			<path fill="#FFFFFF" d="M196.628,159.685c0.388-0.775,1.26-1.065,2.034-0.679l8.041,4.069c0.775,0.388,1.065,1.259,0.678,2.034
				c-0.387,0.775-1.259,1.065-2.034,0.678l-8.04-4.068C196.531,161.428,196.24,160.459,196.628,159.685L196.628,159.685z
				 M207.091,165.013c0.29-0.679,0.097-1.453-0.581-1.744l-8.041-4.068c-0.581-0.291-1.356,0-1.744,0.581
				c-0.29,0.678-0.097,1.453,0.582,1.744l8.04,4.068C206.025,165.885,206.8,165.69,207.091,165.013L207.091,165.013z"/>
			<path fill="#F3F3F3" d="M182.484,161.622c0.484-0.679,1.26-0.872,1.938-0.388l16.856,11.237c0.678,0.388,0.774,1.26,0.388,1.938
				c-0.484,0.679-1.26,0.872-1.938,0.388l-16.856-11.237C182.193,163.075,182,162.203,182.484,161.622L182.484,161.622z"/>
			<path fill="#FFFFFF" d="M182.388,161.525c0.484-0.679,1.453-0.872,2.131-0.484l16.856,11.237
				c0.678,0.484,0.872,1.356,0.388,2.131c-0.484,0.679-1.453,0.872-2.132,0.484l-16.855-11.237
				C182,163.172,181.903,162.203,182.388,161.525L182.388,161.525z M201.472,174.312c0.388-0.581,0.291-1.453-0.29-1.841
				l-16.856-11.237c-0.581-0.388-1.356-0.193-1.744,0.388s-0.29,1.453,0.291,1.841l16.856,11.237
				C200.31,175.088,201.084,174.894,201.472,174.312L201.472,174.312z"/>
			<path fill="#F3F3F3" d="M186.068,175.669c0.484-0.581,1.356-0.775,1.938-0.291l7.072,5.522c0.581,0.484,0.678,1.355,0.193,1.938
				c-0.484,0.581-1.355,0.774-1.938,0.29l-7.071-5.521C185.682,177.122,185.584,176.25,186.068,175.669L186.068,175.669z"/>
			<path fill="#FFFFFF" d="M185.972,175.572c0.484-0.679,1.453-0.775,2.132-0.291l7.071,5.521c0.679,0.484,0.775,1.453,0.291,2.132
				c-0.484,0.678-1.453,0.774-2.132,0.29l-7.071-5.521C185.584,177.219,185.487,176.25,185.972,175.572L185.972,175.572z
				 M195.271,182.838c0.484-0.582,0.388-1.356-0.193-1.841l-7.072-5.522c-0.581-0.387-1.355-0.29-1.84,0.291
				s-0.388,1.356,0.193,1.841l7.072,5.521C194.013,183.516,194.787,183.419,195.271,182.838L195.271,182.838z"/>
			<path fill="#F3F3F3" d="M171.635,174.7c0.581-0.581,1.453-0.581,1.938,0l14.337,14.24c0.581,0.581,0.484,1.453,0,1.938
				c-0.581,0.581-1.453,0.581-1.938,0l-14.337-14.24C171.15,176.153,171.15,175.185,171.635,174.7L171.635,174.7z"/>
			<path fill="#FFFFFF" d="M171.635,174.604c0.581-0.582,1.55-0.582,2.131,0l14.338,14.24c0.581,0.581,0.581,1.55,0,2.131
				c-0.582,0.582-1.551,0.582-2.132,0l-14.337-14.24C170.956,176.153,170.956,175.185,171.635,174.604L171.635,174.604z
				 M187.909,190.781c0.484-0.484,0.484-1.356,0-1.841l-14.337-14.24c-0.484-0.484-1.356-0.484-1.841,0s-0.484,1.356,0,1.841
				l14.337,14.24C186.553,191.362,187.328,191.362,187.909,190.781L187.909,190.781z"/>
			<path fill="#F3F3F3" d="M172.506,189.135c0.582-0.484,1.453-0.484,1.938,0.097l5.91,6.781c0.484,0.581,0.387,1.453-0.194,1.938
				s-1.453,0.484-1.938-0.097l-5.909-6.781C171.828,190.588,171.925,189.716,172.506,189.135L172.506,189.135z"/>
			<path fill="#FFFFFF" d="M172.409,189.135c0.679-0.582,1.55-0.484,2.132,0.097l5.909,6.781c0.581,0.581,0.484,1.55-0.194,2.131
				c-0.678,0.581-1.55,0.484-2.131-0.097l-5.909-6.781C171.731,190.588,171.731,189.619,172.409,189.135L172.409,189.135z
				 M180.159,197.95c0.581-0.484,0.581-1.26,0.194-1.841l-5.91-6.781c-0.484-0.484-1.259-0.581-1.84-0.097
				c-0.582,0.484-0.582,1.259-0.194,1.841l5.909,6.781C178.803,198.435,179.578,198.435,180.159,197.95L180.159,197.95z"/>
			<path fill="#F3F3F3" d="M158.557,185.453c0.678-0.484,1.55-0.291,1.938,0.388l11.237,16.759c0.388,0.679,0.193,1.551-0.388,1.938
				c-0.678,0.484-1.55,0.291-1.938-0.387l-11.237-16.76C157.781,186.713,157.975,185.841,158.557,185.453L158.557,185.453z"/>
			<path fill="#FFFFFF" d="M158.557,185.356c0.678-0.484,1.646-0.291,2.131,0.388l11.237,16.759
				c0.484,0.679,0.291,1.647-0.484,2.132c-0.678,0.484-1.646,0.29-2.131-0.388l-11.237-16.76
				C157.588,186.713,157.781,185.841,158.557,185.356L158.557,185.356z M171.344,204.44c0.581-0.388,0.775-1.162,0.388-1.743
				l-11.237-16.76c-0.388-0.581-1.163-0.678-1.841-0.291c-0.581,0.388-0.775,1.163-0.388,1.744l11.237,16.76
				C169.891,204.635,170.763,204.828,171.344,204.44L171.344,204.44z"/>
			<path fill="#F3F3F3" d="M156.521,199.791c0.679-0.388,1.551-0.194,1.938,0.484l4.457,7.847c0.387,0.678,0.097,1.55-0.582,1.938
				c-0.678,0.388-1.55,0.193-1.938-0.484l-4.456-7.847C155.65,201.05,155.844,200.178,156.521,199.791L156.521,199.791z"/>
			<path fill="#FFFFFF" d="M156.521,199.693c0.775-0.387,1.647-0.193,2.035,0.484l4.456,7.848c0.388,0.678,0.193,1.646-0.581,2.034
				c-0.775,0.388-1.647,0.193-2.035-0.484l-4.456-7.847C155.553,201.05,155.747,200.178,156.521,199.693L156.521,199.693z
				 M162.334,209.963c0.582-0.388,0.872-1.163,0.484-1.744l-4.456-7.847c-0.388-0.581-1.162-0.775-1.743-0.484
				c-0.582,0.388-0.872,1.162-0.484,1.743l4.456,7.848C160.881,210.06,161.753,210.35,162.334,209.963L162.334,209.963z"/>
			<path fill="#F3F3F3" d="M143.638,193.396c0.774-0.29,1.55,0,1.841,0.679l7.847,18.696c0.29,0.679-0.097,1.551-0.775,1.841
				c-0.678,0.291-1.55,0-1.841-0.678l-7.847-18.697C142.572,194.56,142.959,193.688,143.638,193.396L143.638,193.396z"/>
			<path fill="#FFFFFF" d="M143.638,193.3c0.774-0.29,1.646,0,2.034,0.775l7.847,18.696c0.291,0.775-0.097,1.647-0.872,1.938
				c-0.774,0.291-1.646,0-2.034-0.774l-7.847-18.697C142.475,194.56,142.862,193.688,143.638,193.3L143.638,193.3z M152.453,214.516
				c0.678-0.291,0.969-1.065,0.678-1.646l-7.847-18.697c-0.29-0.678-1.065-0.969-1.743-0.678c-0.679,0.29-0.969,1.065-0.679,1.646
				l7.847,18.697C151.097,214.516,151.775,214.807,152.453,214.516L152.453,214.516z"/>
			<path fill="#F3F3F3" d="M138.891,207.153c0.775-0.291,1.55,0.097,1.841,0.872l2.81,8.524c0.29,0.679-0.194,1.55-0.872,1.744
				c-0.775,0.29-1.55-0.097-1.841-0.872l-2.81-8.525C137.729,208.219,138.115,207.443,138.891,207.153L138.891,207.153z"/>
			<path fill="#FFFFFF" d="M138.794,207.057c0.774-0.291,1.646,0.097,1.938,0.871l2.81,8.525c0.29,0.775-0.194,1.646-0.969,1.938
				c-0.775,0.291-1.647-0.097-1.938-0.872l-2.81-8.524C137.631,208.219,138.019,207.347,138.794,207.057L138.794,207.057z
				 M142.572,218.197c0.678-0.194,1.065-0.969,0.871-1.647l-2.809-8.524c-0.194-0.679-0.969-0.969-1.647-0.775
				c-0.678,0.193-1.065,0.969-0.872,1.646l2.81,8.525C141.119,218.1,141.894,218.487,142.572,218.197L142.572,218.197z"/>
			<path fill="#F3F3F3" d="M127.459,198.338c0.775-0.194,1.551,0.29,1.647,1.065l4.068,19.859c0.194,0.774-0.388,1.453-1.162,1.646
				c-0.775,0.194-1.55-0.29-1.647-1.065l-4.068-19.859C126.2,199.307,126.685,198.531,127.459,198.338L127.459,198.338z"/>
			<path fill="#FFFFFF" d="M127.459,198.24c0.872-0.193,1.647,0.388,1.841,1.163l4.069,19.859c0.193,0.774-0.388,1.646-1.163,1.743
				c-0.872,0.194-1.646-0.387-1.841-1.162l-4.068-19.859C126.104,199.209,126.588,198.435,127.459,198.24L127.459,198.24z
				 M132.013,220.812c0.678-0.097,1.162-0.775,1.065-1.55l-4.068-19.859c-0.098-0.679-0.872-1.163-1.551-0.969
				c-0.678,0.097-1.162,0.774-1.065,1.55l4.069,19.859C130.656,220.521,131.334,220.909,132.013,220.812L132.013,220.812z"/>
			<path fill="#F3F3F3" d="M120.097,210.932c0.775-0.098,1.453,0.387,1.647,1.162l1.162,8.912c0.097,0.775-0.484,1.453-1.26,1.551
				c-0.774,0.097-1.453-0.388-1.646-1.163l-1.162-8.912C118.74,211.706,119.322,211.028,120.097,210.932L120.097,210.932z"/>
			<path fill="#FFFFFF" d="M120.097,210.834c0.872-0.097,1.647,0.484,1.744,1.26l1.162,8.912c0.097,0.775-0.484,1.551-1.356,1.647
				c-0.871,0.097-1.646-0.484-1.743-1.26l-1.163-8.912C118.644,211.706,119.225,210.932,120.097,210.834L120.097,210.834z
				 M121.55,222.459c0.679-0.097,1.26-0.774,1.163-1.453l-1.163-8.912c-0.097-0.678-0.774-1.162-1.453-1.065
				c-0.678,0.097-1.259,0.774-1.162,1.453l1.162,8.912C120.193,222.072,120.872,222.557,121.55,222.459L121.55,222.459z"/>
			<path fill="#F3F3F3" d="M110.119,200.081c0.775,0,1.454,0.581,1.454,1.356v20.247c0,0.774-0.679,1.356-1.454,1.356
				s-1.453-0.582-1.453-1.356v-20.247C108.763,200.662,109.344,200.081,110.119,200.081L110.119,200.081z"/>
			<path fill="#FFFFFF" d="M110.119,199.984c0.872,0,1.55,0.678,1.55,1.453v20.247c0,0.774-0.679,1.453-1.55,1.453
				s-1.55-0.679-1.55-1.453v-20.247C108.569,200.662,109.344,199.984,110.119,199.984L110.119,199.984z M110.119,222.943
				c0.678,0,1.356-0.581,1.356-1.259v-20.247c0-0.678-0.581-1.26-1.356-1.26c-0.678,0-1.356,0.582-1.356,1.26v20.247
				C108.859,222.362,109.44,222.943,110.119,222.943L110.119,222.943z"/>
			<path fill="#F3F3F3" d="M100.431,210.932c0.775,0.097,1.356,0.678,1.356,1.453l-0.678,9.009c-0.097,0.775-0.775,1.356-1.55,1.26
				c-0.775-0.097-1.356-0.679-1.356-1.453l0.678-9.01C98.978,211.416,99.656,210.834,100.431,210.932L100.431,210.932z"/>
			<path fill="#FFFFFF" d="M100.431,210.834c0.872,0.098,1.453,0.775,1.453,1.551l-0.678,9.009
				c-0.097,0.775-0.775,1.453-1.646,1.356c-0.872-0.097-1.453-0.775-1.453-1.55l0.678-9.01
				C98.881,211.318,99.56,210.737,100.431,210.834L100.431,210.834z M99.56,222.557c0.678,0,1.356-0.484,1.356-1.163l0.678-9.009
				c0-0.679-0.484-1.26-1.259-1.356c-0.678,0-1.356,0.484-1.356,1.162L98.3,221.2C98.3,221.878,98.881,222.459,99.56,222.557
				L99.56,222.557z"/>
			<path fill="#F3F3F3" d="M93.166,198.338c0.775,0.193,1.259,0.871,1.163,1.646l-3.972,19.859c-0.194,0.775-0.872,1.26-1.647,1.065
				c-0.775-0.193-1.259-0.872-1.163-1.646l3.972-19.859C91.616,198.725,92.391,198.24,93.166,198.338L93.166,198.338z"/>
			<path fill="#FFFFFF" d="M93.166,198.24c0.872,0.194,1.356,0.969,1.259,1.744l-3.972,19.859c-0.194,0.775-0.969,1.356-1.841,1.162
				c-0.872-0.193-1.356-0.969-1.259-1.743l3.972-19.859C91.519,198.628,92.294,198.144,93.166,198.24L93.166,198.24z
				 M88.612,220.812c0.678,0.097,1.356-0.291,1.55-0.969l3.972-19.859c0.097-0.678-0.291-1.356-1.065-1.55
				c-0.678-0.097-1.356,0.29-1.55,0.969l-3.972,19.859C87.45,220.037,87.935,220.619,88.612,220.812L88.612,220.812z"/>
			<path fill="#F3F3F3" d="M81.541,207.057c0.775,0.193,1.259,0.969,1.066,1.743l-2.422,8.719c-0.194,0.775-0.969,1.163-1.744,0.969
				c-0.775-0.193-1.259-0.969-1.065-1.743l2.422-8.719C79.991,207.25,80.766,206.862,81.541,207.057L81.541,207.057z"/>
			<path fill="#FFFFFF" d="M81.541,206.959c0.775,0.194,1.356,1.066,1.066,1.841l-2.422,8.719c-0.194,0.775-1.066,1.26-1.841,1.065
				c-0.775-0.193-1.356-1.065-1.065-1.84l2.422-8.719C79.894,207.25,80.669,206.766,81.541,206.959L81.541,206.959z M78.344,218.294
				c0.678,0.193,1.453-0.194,1.647-0.872l2.422-8.719c0.194-0.678-0.194-1.356-0.969-1.55c-0.678-0.194-1.453,0.193-1.647,0.872
				l-2.422,8.719C77.278,217.422,77.666,218.1,78.344,218.294L78.344,218.294z"/>
			<path fill="#F3F3F3" d="M76.794,193.396c0.775,0.291,1.065,1.163,0.775,1.841l-7.75,18.697c-0.291,0.678-1.163,1.065-1.841,0.678
				s-1.065-1.162-0.775-1.841l7.75-18.696C75.244,193.396,76.116,193.01,76.794,193.396L76.794,193.396z"/>
			<path fill="#FFFFFF" d="M76.794,193.3c0.775,0.291,1.162,1.163,0.872,1.938l-7.75,18.697c-0.291,0.774-1.163,1.065-2.034,0.774
				c-0.775-0.29-1.163-1.162-0.872-1.938l7.75-18.696C75.147,193.3,76.019,192.912,76.794,193.3L76.794,193.3z M67.978,214.516
				c0.678,0.291,1.453,0,1.744-0.678l7.75-18.697c0.291-0.678-0.097-1.356-0.775-1.646c-0.678-0.291-1.453,0-1.744,0.678
				l-7.75,18.697C67.009,213.45,67.3,214.225,67.978,214.516L67.978,214.516z"/>
			<path fill="#F3F3F3" d="M63.716,199.597c0.678,0.388,0.969,1.163,0.678,1.841l-4.068,8.041c-0.388,0.678-1.163,0.969-1.938,0.581
				c-0.678-0.388-0.969-1.163-0.678-1.841l4.069-8.041C62.166,199.5,62.94,199.209,63.716,199.597L63.716,199.597z"/>
			<path fill="#FFFFFF" d="M63.716,199.5c0.775,0.388,1.065,1.26,0.678,2.034l-4.068,8.041c-0.388,0.774-1.26,1.065-2.035,0.678
				s-1.065-1.259-0.678-2.034l4.069-8.041C62.069,199.403,62.94,199.112,63.716,199.5L63.716,199.5z M58.388,210.06
				c0.678,0.29,1.453,0.097,1.744-0.581l4.069-8.041c0.291-0.581,0-1.356-0.582-1.744c-0.678-0.29-1.453-0.097-1.744,0.582
				l-4.069,8.04C57.516,208.896,57.806,209.672,58.388,210.06L58.388,210.06z"/>
			<path fill="#F3F3F3" d="M61.778,185.26c0.678,0.484,0.872,1.355,0.387,1.938l-11.237,16.759
				c-0.388,0.679-1.259,0.775-1.938,0.388c-0.678-0.484-0.872-1.356-0.388-1.938l11.238-16.76
				C60.228,184.969,61.1,184.775,61.778,185.26L61.778,185.26z"/>
			<path fill="#FFFFFF" d="M61.778,185.162c0.678,0.484,0.872,1.453,0.484,2.132l-11.238,16.759
				c-0.484,0.679-1.356,0.872-2.131,0.388c-0.678-0.484-0.872-1.453-0.484-2.131l11.238-16.76
				C60.131,184.872,61.1,184.678,61.778,185.162L61.778,185.162z M48.991,204.247c0.581,0.388,1.453,0.29,1.84-0.291l11.238-16.759
				c0.387-0.582,0.194-1.356-0.388-1.744c-0.581-0.388-1.453-0.291-1.84,0.291l-11.238,16.662
				C48.216,202.987,48.409,203.859,48.991,204.247L48.991,204.247z"/>
			<path fill="#F3F3F3" d="M47.634,188.844c0.582,0.484,0.775,1.356,0.291,1.938l-5.619,7.072c-0.484,0.581-1.356,0.678-1.938,0.193
				c-0.581-0.484-0.775-1.356-0.291-1.938l5.619-7.072C46.181,188.456,47.053,188.359,47.634,188.844L47.634,188.844z"/>
			<path fill="#FFFFFF" d="M47.731,188.747c0.678,0.484,0.775,1.453,0.291,2.131l-5.619,7.072c-0.484,0.678-1.453,0.774-2.131,0.193
				c-0.678-0.484-0.775-1.453-0.291-2.131l5.619-7.072C46.084,188.263,47.053,188.166,47.731,188.747L47.731,188.747z
				 M40.466,197.95c0.581,0.484,1.356,0.388,1.84-0.194l5.619-7.071c0.388-0.581,0.291-1.356-0.291-1.841
				c-0.581-0.484-1.356-0.388-1.84,0.193l-5.619,7.072C39.788,196.69,39.884,197.562,40.466,197.95L40.466,197.95z"/>
			<path fill="#F3F3F3" d="M48.603,174.312c0.582,0.581,0.582,1.453,0,1.938l-14.337,14.24c-0.581,0.582-1.453,0.484-1.938,0
				s-0.581-1.453,0-1.938l14.241-14.24C47.15,173.731,48.022,173.731,48.603,174.312L48.603,174.312z"/>
			<path fill="#FFFFFF" d="M48.7,174.216c0.581,0.581,0.581,1.55,0,2.131l-14.338,14.241c-0.581,0.581-1.55,0.581-2.131,0
				c-0.582-0.582-0.582-1.551,0-2.132l14.337-14.24C47.15,173.635,48.119,173.635,48.7,174.216L48.7,174.216z M32.328,190.49
				c0.484,0.484,1.356,0.484,1.841,0l14.337-14.24c0.484-0.484,0.484-1.356,0-1.841s-1.356-0.484-1.841,0L32.328,188.65
				C31.844,189.135,31.844,189.909,32.328,190.49L32.328,190.49z"/>
			<path fill="#F3F3F3" d="M34.072,175.088c0.484,0.581,0.484,1.453-0.097,1.938l-6.878,5.812c-0.581,0.484-1.453,0.387-1.938-0.194
				s-0.484-1.453,0.097-1.938l6.878-5.812C32.716,174.409,33.587,174.506,34.072,175.088L34.072,175.088z"/>
			<path fill="#FFFFFF" d="M34.169,174.99c0.581,0.679,0.484,1.647-0.097,2.132l-6.878,5.812c-0.582,0.581-1.55,0.484-2.131-0.194
				c-0.581-0.678-0.484-1.646,0.097-2.131l6.878-5.812C32.619,174.216,33.587,174.312,34.169,174.99L34.169,174.99z M25.256,182.644
				c0.484,0.581,1.259,0.581,1.84,0.194l6.878-5.812c0.484-0.484,0.581-1.26,0.097-1.841s-1.259-0.581-1.84-0.194l-6.878,5.812
				C24.772,181.287,24.772,182.062,25.256,182.644L25.256,182.644z"/>
			<path fill="#F3F3F3" d="M37.947,161.138c0.484,0.678,0.291,1.55-0.387,1.938l-16.856,11.237c-0.678,0.388-1.55,0.193-1.938-0.388
				c-0.484-0.678-0.291-1.55,0.388-1.938l16.856-11.237C36.591,160.362,37.462,160.557,37.947,161.138L37.947,161.138z"/>
			<path fill="#FFFFFF" d="M38.044,161.138c0.484,0.678,0.291,1.646-0.388,2.131L20.8,174.506c-0.678,0.484-1.646,0.291-2.131-0.484
				c-0.484-0.678-0.291-1.646,0.387-2.131l16.856-11.237C36.591,160.169,37.56,160.362,38.044,161.138L38.044,161.138z
				 M18.862,173.828c0.388,0.581,1.163,0.775,1.744,0.388l16.856-11.237c0.582-0.388,0.775-1.163,0.291-1.841
				c-0.387-0.581-1.162-0.775-1.744-0.388l-16.856,11.237C18.572,172.472,18.475,173.247,18.862,173.828L18.862,173.828z"/>
			<path fill="#F3F3F3" d="M23.513,159.104c0.387,0.678,0.193,1.55-0.484,1.938l-7.847,4.456c-0.678,0.388-1.55,0.097-1.938-0.581
				c-0.387-0.679-0.194-1.551,0.484-1.938l7.847-4.457C22.253,158.135,23.125,158.425,23.513,159.104L23.513,159.104z"/>
			<path fill="#FFFFFF" d="M23.609,159.006c0.388,0.775,0.194,1.647-0.484,2.035l-7.847,4.456c-0.678,0.388-1.647,0.097-2.035-0.581
				c-0.387-0.775-0.194-1.647,0.484-2.035l7.847-4.456C22.253,158.037,23.222,158.328,23.609,159.006L23.609,159.006z
				 M13.341,164.818c0.387,0.679,1.162,0.872,1.744,0.484l7.847-4.456c0.582-0.388,0.775-1.162,0.484-1.743
				c-0.387-0.679-1.163-0.872-1.744-0.484l-7.847,4.456C13.244,163.365,13.05,164.141,13.341,164.818L13.341,164.818z"/>
			<path fill="#F3F3F3" d="M30.003,146.219c0.291,0.775,0,1.55-0.775,1.841l-18.697,7.75c-0.678,0.29-1.55-0.097-1.841-0.775
				c-0.291-0.774,0-1.55,0.775-1.841l18.697-7.75C28.841,145.153,29.712,145.443,30.003,146.219L30.003,146.219z"/>
			<path fill="#FFFFFF" d="M30.1,146.122c0.291,0.774,0,1.646-0.775,2.034l-18.697,7.75c-0.775,0.291-1.646-0.097-1.938-0.872
				c-0.291-0.774,0-1.646,0.775-2.034l18.697-7.75C28.938,144.959,29.81,145.347,30.1,146.122L30.1,146.122z M8.884,154.938
				c0.291,0.678,1.066,0.969,1.647,0.775l18.697-7.75c0.678-0.291,0.969-1.066,0.678-1.744s-1.065-0.969-1.647-0.775l-18.697,7.75
				C8.884,153.484,8.594,154.26,8.884,154.938L8.884,154.938z"/>
			<path fill="#F3F3F3" d="M16.344,141.375c0.291,0.775-0.097,1.55-0.872,1.841l-8.525,2.81c-0.678,0.29-1.55-0.194-1.744-0.872
				c-0.291-0.775,0.097-1.55,0.872-1.841l8.525-2.81C15.278,140.213,16.053,140.6,16.344,141.375L16.344,141.375z"/>
			<path fill="#FFFFFF" d="M16.44,141.278c0.291,0.774-0.097,1.646-0.969,1.938l-8.525,2.81c-0.775,0.29-1.647-0.194-1.938-0.969
				c-0.291-0.775,0.097-1.647,0.969-1.938l8.525-2.81C15.278,140.115,16.15,140.503,16.44,141.278L16.44,141.278z M5.203,144.959
				c0.194,0.679,0.969,1.066,1.647,0.872l8.525-2.81c0.678-0.193,0.969-0.969,0.775-1.646s-0.969-1.065-1.647-0.872l-8.525,2.81
				C5.3,143.604,5.009,144.281,5.203,144.959L5.203,144.959z"/>
			<path fill="#F3F3F3" d="M25.062,129.847c0.194,0.775-0.291,1.55-1.065,1.647l-19.859,3.875c-0.775,0.193-1.453-0.388-1.647-1.163
				c-0.194-0.774,0.291-1.55,1.065-1.646l19.859-3.875C24.19,128.588,24.966,129.072,25.062,129.847L25.062,129.847z"/>
			<path fill="#FFFFFF" d="M25.256,129.847c0.194,0.872-0.388,1.647-1.163,1.841l-19.859,3.875c-0.775,0.193-1.55-0.388-1.744-1.26
				c-0.194-0.871,0.387-1.646,1.163-1.84l19.859-3.875C24.288,128.394,25.062,128.975,25.256,129.847L25.256,129.847z
				 M2.685,134.206c0.097,0.679,0.775,1.163,1.453,1.065l19.859-3.875c0.678-0.097,1.162-0.871,0.969-1.55
				c-0.097-0.678-0.775-1.162-1.453-1.065l-19.859,3.875C2.975,132.85,2.491,133.528,2.685,134.206L2.685,134.206z"/>
			<path fill="#F3F3F3" d="M12.663,122.388c0.097,0.774-0.388,1.453-1.163,1.55l-8.913,1.065c-0.775,0.097-1.453-0.484-1.55-1.259
				c-0.097-0.775,0.387-1.453,1.163-1.551l8.912-1.065C11.791,121.031,12.565,121.612,12.663,122.388L12.663,122.388z"/>
			<path fill="#FFFFFF" d="M12.759,122.388c0.097,0.872-0.484,1.646-1.259,1.743l-8.913,1.066c-0.775,0.097-1.55-0.484-1.647-1.356
				c-0.097-0.872,0.484-1.647,1.26-1.744l8.912-1.065C11.888,120.935,12.663,121.516,12.759,122.388L12.759,122.388z M1.038,123.744
				c0.097,0.678,0.775,1.259,1.453,1.162l8.913-1.065c0.678-0.097,1.162-0.775,1.065-1.453c-0.097-0.679-0.775-1.26-1.453-1.163
				l-8.913,1.066C1.425,122.388,0.94,123.065,1.038,123.744L1.038,123.744z"/>
			<path fill="#F3F3F3" d="M23.513,112.991c0,0.775-0.582,1.453-1.356,1.453H1.909c-0.775,0-1.356-0.678-1.356-1.453
				s0.581-1.453,1.356-1.453h20.247C22.931,111.538,23.513,112.216,23.513,112.991L23.513,112.991z"/>
			<path fill="#FFFFFF" d="M23.609,112.991c0,0.872-0.678,1.55-1.453,1.55H1.909c-0.775,0-1.453-0.679-1.453-1.55
				c0-0.872,0.678-1.55,1.453-1.55h20.247C22.931,111.44,23.609,112.119,23.609,112.991L23.609,112.991z M0.65,112.894
				c0,0.679,0.582,1.356,1.259,1.356h20.247c0.678,0,1.259-0.581,1.259-1.356c0-0.678-0.581-1.356-1.259-1.356H1.909
				C1.231,111.634,0.65,112.216,0.65,112.894L0.65,112.894z"/>
			<path fill="#E2E2E2" d="M12.759,103.206c-0.097,0.775-0.678,1.356-1.453,1.356l-9.009-0.678c-0.775-0.097-1.356-0.775-1.259-1.55
				c0.097-0.775,0.678-1.356,1.453-1.356l9.009,0.678C12.178,101.753,12.759,102.431,12.759,103.206L12.759,103.206z"/>
			<path fill="#FFFFFF" d="M12.856,103.206c-0.097,0.872-0.775,1.453-1.55,1.453l-9.009-0.678c-0.775-0.097-1.453-0.775-1.356-1.647
				c0.097-0.872,0.775-1.453,1.55-1.453l9.009,0.678C12.275,101.656,12.856,102.431,12.856,103.206L12.856,103.206z M1.038,102.334
				c-0.097,0.678,0.484,1.356,1.163,1.356l9.009,0.678c0.678,0,1.259-0.484,1.356-1.259c0.097-0.678-0.484-1.356-1.162-1.356
				l-9.01-0.678C1.716,101.075,1.134,101.656,1.038,102.334L1.038,102.334z"/>
			<path fill="#F3F3F3" d="M25.256,96.134c-0.194,0.775-0.872,1.259-1.647,1.163L3.75,93.228c-0.775-0.194-1.259-0.872-1.065-1.647
				c0.193-0.775,0.872-1.259,1.646-1.162l19.859,3.972C24.869,94.584,25.353,95.359,25.256,96.134L25.256,96.134z"/>
			<path fill="#FFFFFF" d="M25.353,96.134c-0.194,0.872-0.969,1.356-1.744,1.259L3.75,93.422c-0.775-0.194-1.356-0.969-1.163-1.841
				c0.194-0.872,0.969-1.356,1.744-1.259l19.859,3.972C24.966,94.487,25.45,95.263,25.353,96.134L25.353,96.134z M2.781,91.581
				c-0.097,0.678,0.291,1.356,0.969,1.55l19.859,3.972c0.678,0.097,1.356-0.291,1.55-1.065c0.097-0.678-0.291-1.356-0.969-1.55
				L4.331,90.516C3.556,90.419,2.975,90.903,2.781,91.581L2.781,91.581z"/>
			<path fill="#F3F3F3" d="M16.538,84.509c-0.194,0.775-0.969,1.259-1.744,1.066l-8.719-2.422c-0.775-0.194-1.163-0.969-0.969-1.744
				C5.3,80.634,6.075,80.15,6.85,80.344l8.719,2.422C16.344,82.959,16.731,83.734,16.538,84.509L16.538,84.509z"/>
			<path fill="#FFFFFF" d="M16.634,84.509c-0.194,0.775-1.065,1.356-1.84,1.066l-8.719-2.422c-0.775-0.194-1.26-1.066-1.066-1.841
				s1.066-1.356,1.841-1.065l8.719,2.422C16.344,82.862,16.828,83.638,16.634,84.509L16.634,84.509z M5.3,81.312
				c-0.193,0.678,0.194,1.453,0.872,1.647l8.719,2.422c0.678,0.194,1.356-0.194,1.55-0.969c0.194-0.678-0.193-1.453-0.872-1.647
				L6.85,80.344C6.172,80.247,5.494,80.634,5.3,81.312L5.3,81.312z"/>
			<path fill="#F3F3F3" d="M30.197,79.859c-0.291,0.775-1.163,1.065-1.84,0.775l-18.697-7.75c-0.678-0.291-1.065-1.163-0.775-1.84
				c0.291-0.775,1.163-1.066,1.841-0.775l18.697,7.75C30.197,78.31,30.487,79.181,30.197,79.859L30.197,79.859z"/>
			<path fill="#FFFFFF" d="M30.294,79.956c-0.291,0.775-1.163,1.163-1.938,0.872l-18.697-7.75c-0.775-0.291-1.065-1.163-0.775-2.034
				c0.291-0.775,1.163-1.163,1.938-0.872l18.697,7.75C30.294,78.31,30.584,79.181,30.294,79.956L30.294,79.956z M9.078,71.141
				c-0.291,0.678,0,1.453,0.678,1.744l18.697,7.75c0.678,0.291,1.356-0.097,1.647-0.775s0-1.453-0.678-1.744l-18.697-7.75
				C10.047,70.172,9.272,70.462,9.078,71.141L9.078,71.141z"/>
			<path fill="#F3F3F3" d="M23.9,66.781c-0.387,0.678-1.163,0.969-1.84,0.678l-8.041-4.069c-0.678-0.291-0.969-1.163-0.581-1.938
				c0.388-0.678,1.163-0.969,1.841-0.678l8.041,4.069C23.997,65.231,24.288,66.103,23.9,66.781L23.9,66.781z"/>
			<path fill="#FFFFFF" d="M23.997,66.878c-0.388,0.775-1.26,1.066-2.035,0.678l-8.041-4.069c-0.775-0.387-1.065-1.259-0.678-2.034
				c0.388-0.775,1.259-1.065,2.035-0.678l8.041,4.069C24.094,65.134,24.384,66.103,23.997,66.878L23.997,66.878z M13.534,61.55
				c-0.291,0.678-0.097,1.453,0.582,1.744l8.041,4.068c0.581,0.291,1.356,0,1.744-0.581c0.291-0.678,0.097-1.453-0.581-1.744
				l-8.138-4.069C14.6,60.678,13.825,60.872,13.534,61.55L13.534,61.55z"/>
			<path fill="#F3F3F3" d="M38.141,64.94c-0.484,0.678-1.259,0.872-1.938,0.388L19.444,54.188c-0.678-0.388-0.775-1.259-0.388-1.938
				c0.388-0.678,1.259-0.872,1.938-0.388L37.85,63.1C38.431,63.487,38.625,64.359,38.141,64.94L38.141,64.94z"/>
			<path fill="#FFFFFF" d="M38.237,65.038c-0.484,0.678-1.453,0.872-2.131,0.484l-16.76-11.238
				c-0.678-0.484-0.872-1.356-0.387-2.131c0.484-0.678,1.453-0.872,2.131-0.484L37.85,62.906
				C38.625,63.391,38.722,64.359,38.237,65.038L38.237,65.038z M19.153,52.25c-0.388,0.581-0.291,1.453,0.291,1.841L36.3,65.328
				c0.582,0.388,1.356,0.194,1.744-0.388c0.387-0.581,0.291-1.453-0.291-1.84L20.897,51.862
				C20.315,51.475,19.541,51.669,19.153,52.25L19.153,52.25z"/>
			<path fill="#F3F3F3" d="M34.556,50.894c-0.484,0.582-1.356,0.775-1.938,0.291l-7.072-5.522c-0.581-0.484-0.678-1.356-0.194-1.938
				c0.484-0.582,1.356-0.775,1.938-0.291l7.072,5.521C34.944,49.44,35.041,50.312,34.556,50.894L34.556,50.894z"/>
			<path fill="#FFFFFF" d="M34.653,50.991c-0.484,0.678-1.453,0.775-2.131,0.291l-7.072-5.522c-0.678-0.484-0.775-1.453-0.291-2.131
				c0.484-0.678,1.453-0.775,2.131-0.291l7.072,5.522C35.041,49.344,35.138,50.312,34.653,50.991L34.653,50.991z M25.353,43.725
				c-0.484,0.581-0.387,1.356,0.194,1.84l7.072,5.522c0.582,0.388,1.356,0.291,1.841-0.291s0.387-1.356-0.194-1.841l-7.072-5.521
				C26.612,43.047,25.837,43.144,25.353,43.725L25.353,43.725z"/>
			<path fill="#F3F3F3" d="M48.991,51.862c-0.582,0.582-1.453,0.582-1.938,0l-14.435-14.24c-0.581-0.582-0.484-1.453,0-1.938
				c0.582-0.582,1.453-0.582,1.938,0l14.337,14.24C49.475,50.409,49.475,51.378,48.991,51.862L48.991,51.862z"/>
			<path fill="#FFFFFF" d="M48.991,51.959c-0.582,0.581-1.55,0.581-2.131,0L32.522,37.719c-0.582-0.581-0.582-1.55,0-2.131
				c0.581-0.581,1.55-0.581,2.131,0l14.337,14.241C49.669,50.409,49.669,51.378,48.991,51.959L48.991,51.959z M32.716,35.781
				c-0.484,0.484-0.484,1.356,0,1.841l14.337,14.24c0.484,0.484,1.356,0.484,1.84,0s0.484-1.356,0-1.84L34.556,35.685
				C34.072,35.2,33.297,35.2,32.716,35.781L32.716,35.781z"/>
			<path fill="#F3F3F3" d="M48.119,37.428c-0.581,0.484-1.453,0.484-1.938-0.097l-5.909-6.781c-0.484-0.581-0.388-1.453,0.194-1.938
				c0.581-0.484,1.453-0.484,1.938,0.097l5.909,6.781C48.797,35.975,48.7,36.847,48.119,37.428L48.119,37.428z"/>
			<path fill="#FFFFFF" d="M48.216,37.428c-0.678,0.581-1.55,0.484-2.131-0.097l-5.91-6.781c-0.581-0.581-0.484-1.55,0.194-2.131
				c0.678-0.582,1.55-0.484,2.131,0.097l5.909,6.781C48.894,35.975,48.894,36.944,48.216,37.428L48.216,37.428z M40.466,28.612
				c-0.582,0.484-0.582,1.26-0.194,1.841l5.909,6.781c0.484,0.484,1.259,0.581,1.841,0.097c0.581-0.484,0.581-1.259,0.194-1.84
				l-5.91-6.781C41.822,28.128,41.047,28.128,40.466,28.612L40.466,28.612z"/>
			<path fill="#F3F3F3" d="M62.069,41.109c-0.678,0.484-1.55,0.291-1.938-0.388L48.797,23.962c-0.388-0.678-0.194-1.55,0.388-1.938
				c0.678-0.484,1.55-0.291,1.938,0.388l11.237,16.759C62.844,39.85,62.65,40.722,62.069,41.109L62.069,41.109z"/>
			<path fill="#FFFFFF" d="M62.069,41.206c-0.678,0.484-1.647,0.291-2.131-0.387L48.7,24.06c-0.484-0.678-0.291-1.647,0.484-2.131
				c0.678-0.484,1.646-0.291,2.131,0.387l11.238,16.76C63.038,39.85,62.844,40.722,62.069,41.206L62.069,41.206z M49.281,22.122
				c-0.581,0.387-0.775,1.162-0.388,1.744l11.238,16.759c0.387,0.581,1.163,0.678,1.84,0.291c0.582-0.387,0.775-1.163,0.388-1.744
				L51.122,22.509C50.734,21.928,49.862,21.734,49.281,22.122L49.281,22.122z"/>
			<path fill="#F3F3F3" d="M64.103,26.772c-0.678,0.387-1.55,0.194-1.938-0.484l-4.456-7.847c-0.388-0.678-0.097-1.55,0.581-1.938
				c0.678-0.387,1.55-0.193,1.938,0.484l4.457,7.847C64.975,25.513,64.781,26.384,64.103,26.772L64.103,26.772z"/>
			<path fill="#FFFFFF" d="M64.103,26.869c-0.775,0.388-1.647,0.194-2.034-0.484l-4.457-7.847c-0.387-0.678-0.193-1.647,0.582-2.035
				c0.775-0.387,1.647-0.193,2.034,0.484l4.457,7.847C65.072,25.513,64.878,26.384,64.103,26.869L64.103,26.869z M58.291,16.6
				c-0.581,0.387-0.872,1.163-0.484,1.744l4.457,7.847c0.387,0.582,1.162,0.775,1.744,0.484c0.581-0.387,0.872-1.162,0.484-1.744
				l-4.457-7.847C59.744,16.503,58.872,16.212,58.291,16.6L58.291,16.6z"/>
			<path fill="#F3F3F3" d="M76.987,33.166c-0.775,0.291-1.55,0-1.84-0.678L67.3,13.791c-0.291-0.678,0.097-1.55,0.775-1.84
				c0.775-0.291,1.55,0,1.84,0.678l7.847,18.697C78.053,32.003,77.666,32.875,76.987,33.166L76.987,33.166z"/>
			<path fill="#FFFFFF" d="M76.987,33.263c-0.775,0.291-1.646,0-2.034-0.775l-7.847-18.697c-0.291-0.775,0.097-1.647,0.872-1.938
				s1.647,0,2.035,0.775l7.847,18.697C78.15,32.003,77.763,32.875,76.987,33.263L76.987,33.263z M68.172,12.047
				c-0.678,0.291-0.969,1.065-0.678,1.647l7.847,18.697c0.291,0.678,1.065,0.969,1.744,0.678s0.969-1.066,0.678-1.647l-7.847-18.697
				C69.528,12.047,68.85,11.756,68.172,12.047L68.172,12.047z"/>
			<path fill="#F3F3F3" d="M81.734,19.409c-0.775,0.291-1.55-0.097-1.841-0.872l-2.809-8.525c-0.291-0.678,0.194-1.55,0.872-1.744
				c0.678-0.193,1.55,0.097,1.841,0.872l2.81,8.525C82.897,18.344,82.509,19.119,81.734,19.409L81.734,19.409z"/>
			<path fill="#FFFFFF" d="M81.831,19.506c-0.775,0.291-1.646-0.097-1.938-0.872l-2.809-8.525c-0.291-0.775,0.194-1.647,0.969-1.938
				s1.647,0.097,1.938,0.872l2.809,8.525C82.994,18.344,82.606,19.216,81.831,19.506L81.831,19.506z M78.053,8.366
				c-0.678,0.194-1.066,0.969-0.872,1.647l2.81,8.525c0.194,0.678,0.969,0.969,1.647,0.775c0.678-0.194,1.065-0.969,0.872-1.647
				L79.7,9.141C79.506,8.462,78.731,8.075,78.053,8.366L78.053,8.366z"/>
			<path fill="#F3F3F3" d="M93.166,28.225c-0.775,0.194-1.55-0.291-1.647-1.066L87.45,7.3c-0.194-0.775,0.387-1.453,1.162-1.646
				c0.775-0.194,1.55,0.291,1.647,1.065l4.069,19.859C94.425,27.256,93.94,28.031,93.166,28.225L93.166,28.225z"/>
			<path fill="#FFFFFF" d="M93.166,28.322c-0.872,0.194-1.647-0.387-1.84-1.163L87.256,7.3c-0.194-0.775,0.387-1.646,1.163-1.744
				c0.872-0.194,1.646,0.388,1.84,1.163l4.069,19.859C94.522,27.353,94.038,28.128,93.166,28.322L93.166,28.322z M88.612,5.75
				c-0.678,0.097-1.162,0.775-1.065,1.55l4.069,19.859c0.097,0.678,0.872,1.163,1.55,0.969c0.678-0.097,1.163-0.775,1.066-1.55
				L90.163,6.719C89.969,6.041,89.291,5.653,88.612,5.75L88.612,5.75z"/>
			<path fill="#F3F3F3" d="M100.528,15.631c-0.775,0.097-1.453-0.388-1.647-1.163l-1.163-8.913c-0.097-0.775,0.484-1.453,1.259-1.55
				c0.775-0.097,1.453,0.387,1.647,1.163l1.163,8.912C101.884,14.856,101.303,15.534,100.528,15.631L100.528,15.631z"/>
			<path fill="#FFFFFF" d="M100.528,15.728c-0.872,0.097-1.647-0.484-1.744-1.259l-1.162-8.913c-0.097-0.775,0.484-1.55,1.356-1.647
				c0.872-0.097,1.647,0.484,1.744,1.26l1.163,8.912C101.981,14.856,101.4,15.631,100.528,15.728L100.528,15.728z M99.075,4.103
				c-0.678,0.097-1.26,0.775-1.163,1.453l1.163,8.913c0.097,0.678,0.775,1.163,1.453,1.065c0.678-0.097,1.259-0.775,1.162-1.453
				l-1.162-8.912C100.431,4.491,99.753,4.006,99.075,4.103L99.075,4.103z"/>
			
				<linearGradient id="SVGID_3_" gradientUnits="userSpaceOnUse" x1="-399.9614" y1="496.1025" x2="-400.195" y2="495.6834" gradientTransform="matrix(229.4 0 0 -229.4 91875.3203 113894.875)">
				<stop  offset="0" style="stop-color:#000000;stop-opacity:0"/>
				<stop  offset="1" style="stop-color:#000000"/>
			</linearGradient>
			<circle fill="url(#SVGID_3_)" fill-opacity="0.2" cx="110.99" cy="113.185" r="114.7"/>
		</g>
		<g>
			<polygon opacity="0.05" points="200.115,49.15 107.6,108.438 107.503,108.438 107.503,108.534 107.406,108.631 49.669,203.859 
				134.531,135.562 134.628,135.466 134.628,135.369 			"/>
		</g>
		<path fill="#CD151E" d="M198.372,43.628l-91.45,65.003l27.125,26.931L198.372,43.628"/>
		<path fill="#FA5153" d="M107.019,108.438l13.659,13.466l77.694-78.275L107.019,108.438z"/>
		<path fill="#ACACAC" d="M107.019,108.438l27.125,26.932l-91.45,65.003L107.019,108.438z"/>
		<path fill="#EEEEEE" d="M42.694,200.372l77.984-78.469l-13.659-13.466L42.694,200.372z"/>
	</g>
</g>
</svg>
