<?xml version="1.0" encoding="utf-8"?>
<!-- Generator: Adobe Illustrator 16.0.4, SVG Export Plug-In . SVG Version: 6.00 Build 0)  -->
<!DOCTYPE svg PUBLIC "-//W3C//DTD SVG 1.1//EN" "http://www.w3.org/Graphics/SVG/1.1/DTD/svg11.dtd">
<svg version="1.1" id="Layer_1" xmlns="http://www.w3.org/2000/svg" xmlns:xlink="http://www.w3.org/1999/xlink" x="0px" y="0px"
	 width="350.625px" height="61.278px" viewBox="6.5 121.619 350.625 61.278" enable-background="new 6.5 121.619 350.625 61.278"
	 xml:space="preserve">
<g>
	<g>
		<g>
			<g>
				
					<path fill="#808184" stroke="#808184" stroke-width="0.75" stroke-linecap="round" stroke-linejoin="round" stroke-miterlimit="10" d="
					M105.218,121.994c0,0-8.08,6.936,0,13.967C105.218,135.96,113.302,129.547,105.218,121.994z"/>
			</g>
			<path fill="#FF149B" stroke="#FF149B" stroke-linecap="round" stroke-linejoin="round" stroke-miterlimit="10" d="
				M115.122,133.454c0,0-8.677-0.663-8.072,8.073C107.05,141.527,115.429,142.492,115.122,133.454z"/>
			<path fill="#FF149B" stroke="#FF149B" stroke-linecap="round" stroke-linejoin="round" stroke-miterlimit="10" d="
				M95.437,133.453c0,0-0.661,8.682,8.074,8.073C103.511,141.526,104.476,133.145,95.437,133.453z"/>
		</g>
		<g>
			<path fill="#FF149B" stroke="#FF149B" stroke-linecap="round" stroke-linejoin="round" stroke-miterlimit="10" d="
				M40.604,142.206h39.807c3.107,0,2.855,3.167,2.855,3.167v11.317c0,1.828-1.461,1.828-1.461,1.828H38.958
				c-1.461,0-1.583-1.705-1.583-1.705v-11.44C37.375,141.844,40.604,142.206,40.604,142.206z M44.436,147.683
				c-1.75,0-3.166,1.418-3.166,3.166c0,1.748,1.416,3.165,3.166,3.165c1.748,0,3.163-1.417,3.163-3.165
				C47.598,149.101,46.183,147.683,44.436,147.683z M76.205,147.683c-1.747,0-3.166,1.418-3.166,3.166
				c0,1.748,1.418,3.165,3.166,3.165c1.746,0,3.165-1.417,3.165-3.165C79.37,149.101,77.951,147.683,76.205,147.683z"/>
			<path fill="#FF149B" stroke="#FF149B" stroke-linecap="round" stroke-linejoin="round" stroke-miterlimit="10" d="
				M40.604,142.206v-9.494c0,0,0.384-6.945,6.948-6.945h25.919c0,0,6.939,0.007,6.939,6.215v10.225H40.604z M76.63,138.677v-6.27
				c0-3.226-3.348-3.348-3.348-3.348H47.476c-3.649,0-3.53,3.532-3.53,3.532v6.085C61.477,142.451,76.63,138.677,76.63,138.677z"/>
			<path fill="#FFFFFF" d="M60.288,155.661c-3.88,0-7.529-1.514-10.276-4.262c-0.305-0.305-0.305-0.798,0-1.102
				c0.304-0.305,0.797-0.305,1.101,0c2.453,2.453,5.712,3.805,9.175,3.805c3.464,0,6.723-1.352,9.176-3.805
				c0.304-0.305,0.797-0.305,1.101,0c0.304,0.304,0.304,0.797,0,1.102C67.817,154.147,64.168,155.661,60.288,155.661z"/>
			<path fill="#FF149B" stroke="#FF149B" stroke-linecap="round" stroke-linejoin="round" stroke-miterlimit="10" d="
				M44.436,155.126c1.541,0,2.788,0.94,2.788,2.101v6.001c0,1.16-1.248,2.102-2.788,2.102l0,0c-1.54,0-2.788-0.941-2.788-2.102
				v-6.001C41.647,156.067,42.896,155.126,44.436,155.126L44.436,155.126z"/>
			<path fill="#FF149B" stroke="#FF149B" stroke-linecap="round" stroke-linejoin="round" stroke-miterlimit="10" d="
				M76.205,155.126c1.54,0,2.788,0.94,2.788,2.101v6.001c0,1.16-1.248,2.102-2.788,2.102l0,0c-1.541,0-2.788-0.941-2.788-2.102
				v-6.001C73.417,156.067,74.664,155.126,76.205,155.126L76.205,155.126z"/>
		</g>
		<g>
			<path fill="#FF149B" stroke="#FF149B" stroke-linecap="round" stroke-linejoin="round" stroke-miterlimit="10" d="
				M58.662,182.397c-4.127,0-32.446-1.279-43.431-35.22c-0.265-0.819,0.184-1.698,1.002-1.962c0.819-0.268,1.698,0.183,1.962,1.001
				c11.088,34.258,40.598,33.067,40.888,33.059c35.612-0.003,43.622-32.603,43.698-32.932c0.197-0.837,1.032-1.357,1.872-1.165
				c0.837,0.196,1.359,1.034,1.164,1.872c-0.083,0.353-8.677,35.339-46.65,35.339C59.15,182.39,58.976,182.397,58.662,182.397z"/>
		</g>
		<g>
			<g>
				
					<path fill="#808184" stroke="#808184" stroke-width="0.75" stroke-linecap="round" stroke-linejoin="round" stroke-miterlimit="10" d="
					M16.794,121.994c0,0-8.084,6.936,0,13.967C16.794,135.96,24.875,129.547,16.794,121.994z"/>
			</g>
			<path fill="#FF149B" stroke="#FF149B" stroke-linecap="round" stroke-linejoin="round" stroke-miterlimit="10" d="
				M26.698,133.454c0,0-8.681-0.663-8.074,8.073C18.624,141.527,27.002,142.492,26.698,133.454z"/>
			<path fill="#FF149B" stroke="#FF149B" stroke-linecap="round" stroke-linejoin="round" stroke-miterlimit="10" d="M7.011,133.453
				c0,0-0.663,8.682,8.073,8.073C15.084,141.526,16.051,133.145,7.011,133.453z"/>
		</g>
	</g>
	<g>
		<g>
			<path fill="#808184" stroke="#808184" stroke-linecap="round" stroke-linejoin="round" stroke-miterlimit="10" d="
				M130.105,142.168l6.251,18.508l6.27-18.643c0.326-0.98,0.572-1.66,0.733-2.042c0.164-0.383,0.436-0.729,0.813-1.035
				c0.375-0.309,0.888-0.464,1.543-0.464c0.478,0,0.919,0.121,1.328,0.359c0.407,0.239,0.727,0.556,0.958,0.949
				c0.235,0.396,0.35,0.796,0.35,1.196c0,0.277-0.037,0.575-0.113,0.895c-0.076,0.319-0.17,0.634-0.282,0.941
				c-0.113,0.308-0.225,0.623-0.338,0.952l-6.687,18.038c-0.237,0.69-0.475,1.348-0.715,1.97c-0.237,0.621-0.514,1.166-0.828,1.636
				c-0.313,0.472-0.73,0.857-1.25,1.161c-0.524,0.301-1.16,0.449-1.915,0.449c-0.751,0-1.388-0.146-1.908-0.442
				c-0.523-0.294-0.943-0.684-1.263-1.168c-0.319-0.483-0.6-1.031-0.836-1.647c-0.24-0.615-0.478-1.268-0.716-1.958l-6.574-17.889
				c-0.113-0.325-0.229-0.647-0.347-0.959c-0.119-0.314-0.219-0.653-0.302-1.018c-0.082-0.364-0.122-0.671-0.122-0.923
				c0-0.64,0.255-1.223,0.77-1.751c0.518-0.527,1.163-0.792,1.942-0.792c0.952,0,1.628,0.294,2.024,0.876
				C129.287,139.954,129.688,140.886,130.105,142.168z"/>
			<path fill="#808184" stroke="#808184" stroke-linecap="round" stroke-linejoin="round" stroke-miterlimit="10" d="
				M170.74,143.277h-12.597v6.777h11.599c0.853,0,1.492,0.191,1.912,0.575c0.42,0.384,0.63,0.888,0.63,1.516
				c0,0.63-0.207,1.14-0.621,1.535s-1.053,0.594-1.921,0.594h-11.599v7.852h13.029c0.88,0,1.54,0.204,1.987,0.614
				c0.445,0.406,0.67,0.949,0.67,1.626c0,0.652-0.225,1.184-0.67,1.593c-0.447,0.409-1.107,0.611-1.987,0.611h-15.196
				c-1.217,0-2.091-0.271-2.626-0.811c-0.533-0.538-0.797-1.413-0.797-2.617v-20.751c0-0.803,0.118-1.46,0.356-1.969
				c0.237-0.508,0.611-0.877,1.12-1.111c0.508-0.233,1.16-0.347,1.948-0.347h14.764c0.892,0,1.555,0.198,1.987,0.594
				s0.648,0.913,0.648,1.553c0,0.652-0.216,1.177-0.648,1.573S171.632,143.277,170.74,143.277z"/>
			<path fill="#808184" stroke="#808184" stroke-linecap="round" stroke-linejoin="round" stroke-miterlimit="10" d="
				M185.787,154.764h-1.96v8.866c0,1.169-0.259,2.029-0.77,2.581c-0.518,0.553-1.187,0.828-2.018,0.828
				c-0.889,0-1.58-0.288-2.07-0.865s-0.736-1.426-0.736-2.544v-21.239c0-1.205,0.271-2.077,0.812-2.617
				c0.538-0.54,1.412-0.81,2.618-0.81h9.094c1.254,0,2.328,0.055,3.22,0.162c0.891,0.106,1.694,0.321,2.41,0.648
				c0.864,0.364,1.632,0.886,2.299,1.563c0.662,0.677,1.168,1.465,1.516,2.365c0.344,0.896,0.518,1.848,0.518,2.85
				c0,2.06-0.581,3.705-1.744,4.937c-1.16,1.229-2.918,2.101-5.282,2.615c0.994,0.525,1.939,1.304,2.846,2.335
				c0.9,1.028,1.708,2.122,2.418,3.286c0.708,1.162,1.263,2.209,1.657,3.143c0.394,0.935,0.591,1.579,0.591,1.932
				c0,0.364-0.115,0.727-0.348,1.083c-0.23,0.358-0.547,0.64-0.948,0.847s-0.867,0.311-1.396,0.311
				c-0.626,0-1.156-0.146-1.582-0.442c-0.426-0.294-0.794-0.669-1.102-1.12c-0.307-0.451-0.724-1.117-1.25-1.995l-2.24-3.729
				c-0.804-1.367-1.524-2.409-2.158-3.127c-0.633-0.715-1.278-1.205-1.929-1.467C187.602,154.896,186.776,154.764,185.787,154.764z
				 M188.986,143.165h-5.159v7.589h5.01c1.342,0,2.471-0.118,3.387-0.352c0.917-0.229,1.619-0.626,2.1-1.186
				c0.485-0.556,0.725-1.327,0.725-2.304c0-0.769-0.192-1.441-0.582-2.027c-0.39-0.583-0.928-1.02-1.619-1.308
				C192.194,143.302,190.906,143.165,188.986,143.165z"/>
			<path fill="#808184" stroke="#808184" stroke-linecap="round" stroke-linejoin="round" stroke-miterlimit="10" d="
				M206.234,163.63v-21.747c0-1.13,0.259-1.979,0.772-2.543c0.514-0.566,1.181-0.848,1.997-0.848c0.84,0,1.521,0.28,2.042,0.84
				c0.521,0.558,0.782,1.408,0.782,2.551v21.747c0,1.145-0.262,1.997-0.782,2.562c-0.521,0.566-1.202,0.848-2.042,0.848
				c-0.804,0-1.467-0.284-1.987-0.857C206.495,165.612,206.234,164.761,206.234,163.63z"/>
			<path fill="#808184" stroke="#808184" stroke-linecap="round" stroke-linejoin="round" stroke-miterlimit="10" d="
				M234.575,143.277h-11.017v7.061h9.209c0.853,0,1.488,0.189,1.911,0.573c0.42,0.383,0.63,0.896,0.63,1.534
				c0,0.642-0.216,1.15-0.639,1.526c-0.429,0.376-1.062,0.564-1.902,0.564h-9.209v9.094c0,1.155-0.263,2.016-0.78,2.57
				c-0.522,0.56-1.189,0.839-2.006,0.839c-0.83,0-1.506-0.281-2.026-0.848c-0.521-0.564-0.779-1.417-0.779-2.562v-21.239
				c0-0.803,0.119-1.46,0.356-1.969c0.24-0.508,0.611-0.877,1.12-1.111c0.508-0.233,1.159-0.347,1.95-0.347h13.182
				c0.89,0,1.553,0.198,1.984,0.594c0.433,0.396,0.652,0.913,0.652,1.553c0,0.652-0.22,1.177-0.652,1.573
				C236.127,143.079,235.464,143.277,234.575,143.277z"/>
			<path fill="#808184" stroke="#808184" stroke-linecap="round" stroke-linejoin="round" stroke-miterlimit="10" d="
				M245.271,131.771h2.541c0.639,0,0.961,0.094,0.961,0.283c0,0.101-0.354,0.508-1.056,1.223c-0.703,0.717-1.412,1.4-2.128,2.053
				c-0.715,0.651-1.211,1.047-1.488,1.188c-0.715,0.363-1.481,0.544-2.295,0.544c-0.541,0-0.809-0.157-0.809-0.472
				c0-0.213,0.161-0.583,0.486-1.111l0.851-1.579c0.489-0.918,0.915-1.501,1.28-1.754
				C243.976,131.899,244.531,131.771,245.271,131.771z M241.6,163.63v-21.747c0-1.13,0.255-1.979,0.77-2.543
				c0.515-0.566,1.181-0.848,1.996-0.848c0.84,0,1.522,0.28,2.043,0.84c0.521,0.558,0.782,1.408,0.782,2.551v21.747
				c0,1.145-0.262,1.997-0.782,2.562c-0.521,0.566-1.203,0.848-2.043,0.848c-0.804,0-1.467-0.284-1.987-0.857
				C241.859,165.612,241.6,164.761,241.6,163.63z"/>
			<path fill="#808184" stroke="#808184" stroke-linecap="round" stroke-linejoin="round" stroke-miterlimit="10" d="
				M276.959,157.851c0,0.878-0.216,1.828-0.647,2.852c-0.437,1.024-1.115,2.029-2.046,3.014c-0.928,0.986-2.115,1.787-3.559,2.399
				c-1.441,0.615-3.126,0.924-5.045,0.924c-1.455,0-2.782-0.139-3.973-0.415c-1.193-0.275-2.276-0.703-3.251-1.288
				c-0.971-0.585-1.865-1.353-2.682-2.307c-0.729-0.867-1.351-1.838-1.864-2.911c-0.516-1.071-0.901-2.218-1.157-3.437
				c-0.258-1.217-0.386-2.509-0.386-3.877c0-2.223,0.322-4.212,0.967-5.97c0.649-1.759,1.574-3.26,2.779-4.51
				c1.205-1.248,2.618-2.199,4.236-2.851c1.619-0.652,3.345-0.981,5.181-0.981c2.23,0,4.222,0.446,5.968,1.336
				c1.743,0.894,3.08,1.995,4.011,3.307c0.929,1.31,1.392,2.55,1.392,3.719c0,0.639-0.226,1.205-0.676,1.693
				c-0.453,0.489-0.998,0.735-1.638,0.735c-0.718,0-1.254-0.17-1.608-0.508c-0.36-0.34-0.759-0.923-1.197-1.75
				c-0.728-1.37-1.585-2.394-2.571-3.071c-0.987-0.677-2.201-1.017-3.643-1.017c-2.299,0-4.128,0.873-5.488,2.618
				c-1.364,1.746-2.046,4.223-2.046,7.438c0,2.146,0.302,3.933,0.904,5.355c0.603,1.426,1.454,2.489,2.563,3.191
				c1.101,0.704,2.394,1.057,3.877,1.057c1.607,0,2.967-0.4,4.078-1.196c1.107-0.798,1.947-1.969,2.515-3.513
				c0.236-0.727,0.532-1.321,0.882-1.778c0.354-0.458,0.917-0.689,1.695-0.689c0.666,0,1.236,0.233,1.714,0.699
				C276.722,156.583,276.959,157.162,276.959,157.851z"/>
			<path fill="#808184" stroke="#808184" stroke-linecap="round" stroke-linejoin="round" stroke-miterlimit="10" d="
				M299.649,163.442l-1.318-3.465H287.11l-1.318,3.542c-0.514,1.379-0.955,2.312-1.317,2.794c-0.365,0.485-0.962,0.727-1.789,0.727
				c-0.704,0-1.324-0.256-1.863-0.77c-0.542-0.516-0.812-1.102-0.812-1.754c0-0.375,0.063-0.766,0.189-1.167
				c0.124-0.401,0.331-0.962,0.623-1.676l7.062-17.928c0.197-0.513,0.44-1.132,0.724-1.853c0.283-0.722,0.585-1.321,0.904-1.797
				c0.319-0.479,0.739-0.863,1.26-1.158s1.166-0.444,1.93-0.444c0.779,0,1.431,0.149,1.951,0.444s0.94,0.673,1.26,1.139
				c0.322,0.464,0.591,0.961,0.811,1.497c0.218,0.533,0.499,1.245,0.836,2.138l7.214,17.812c0.565,1.354,0.849,2.343,0.849,2.957
				c0,0.64-0.268,1.226-0.801,1.761c-0.536,0.532-1.178,0.799-1.933,0.799c-0.438,0-0.815-0.077-1.129-0.234
				c-0.313-0.158-0.578-0.372-0.791-0.641c-0.214-0.271-0.441-0.687-0.685-1.243C300.036,164.362,299.826,163.872,299.649,163.442z
				 M288.581,155.78h8.244l-4.161-11.392L288.581,155.78z"/>
			<path fill="#808184" stroke="#808184" stroke-linecap="round" stroke-linejoin="round" stroke-miterlimit="10" d="
				M315.206,141.883v20.092h11.337c0.9,0,1.595,0.219,2.079,0.659c0.484,0.438,0.725,0.99,0.725,1.657
				c0,0.677-0.237,1.228-0.716,1.646c-0.476,0.423-1.171,0.632-2.088,0.632h-13.505c-1.215,0-2.091-0.271-2.626-0.811
				c-0.533-0.538-0.801-1.413-0.801-2.617v-21.259c0-1.13,0.255-1.979,0.765-2.543c0.508-0.566,1.177-0.848,2.005-0.848
				c0.841,0,1.522,0.28,2.043,0.84C314.944,139.89,315.206,140.74,315.206,141.883z"/>
		</g>
		<path fill="#808184" d="M353.999,155.903c-0.065,0-0.131-0.002-0.196-0.005c-1.714-0.107-3.019-1.579-2.919-3.291
			c0.005-0.082,0.212-4.769-2.355-7.477c-1.284-1.354-3.097-2.011-5.541-2.011c-1.182,0.023-7.204,0.6-7.204,9.667
			c0,1.721-1.395,3.116-3.116,3.116c-1.721,0-3.116-1.396-3.116-3.116c0-5.12,1.446-9.158,4.299-12.002
			c3.787-3.777,8.545-3.898,9.135-3.898c0.005,0,0.009,0,0.012,0c4.204,0,7.602,1.344,10.093,3.997
			c4.424,4.708,4.036,11.798,4.019,12.097C357.002,154.632,355.631,155.903,353.999,155.903z"/>
		<path fill="#FF149B" d="M343.69,167.318c-0.005,0-0.009,0-0.012,0c-4.203,0-7.603-1.345-10.092-3.996
			c-4.425-4.708-4.036-11.799-4.018-12.099c0.107-1.717,1.617-3.001,3.304-2.917c1.713,0.106,3.018,1.579,2.918,3.291
			c-0.005,0.082-0.212,4.769,2.355,7.477c1.284,1.354,3.098,2.012,5.541,2.012c1.184-0.023,7.205-0.599,7.205-9.668
			c0-1.722,1.395-3.117,3.115-3.117c1.722,0,3.117,1.396,3.117,3.117c0,5.121-1.447,9.159-4.299,12.003
			C349.038,167.195,344.284,167.318,343.69,167.318z"/>
	</g>
</g>
</svg>
